Welcome to the tidyverse
…
The summarize() function takes all rows in each column and applies a function to these rows. mean(gdpPercap) takes the mean of all observations of gdpPercap for Sri Lanka and returns the average, summarized as the new variable avg_gdp.

Try putting this in plain English using the grammar of dplyr. Then unfold the code chunk below to see what I think the code says.

# Start with the gapminder dataset, then filter to only records for the country of Sri Lanka, then remove all columns except for year and gdpPercap, then summarize the Sri Lanka data subset so that we return a dataframe with three newly created columns (avg_gdp, max_gdp, and min_gdp) that describe the average, maximum, and minimum of gdpPercap across all records for Sri Lanka.

Lets go a bit further. Lets say you want to know which countries have the highest average life expectancy:

gapminder %>%
  group_by(country) %>%
  summarize(mean_le = mean(lifeExp)) %>%
  arrange(desc(mean_le))

## # A tibble: 142 x 2
##    country     mean_le
##    <fct>         <dbl>
##  1 Iceland        76.5
##  2 Sweden         76.2
##  3 Norway         75.8
##  4 Netherlands    75.6
##  5 Switzerland    75.6
##  6 Canada         74.9
##  7 Japan          74.8
##  8 Australia      74.7
##  9 Denmark        74.4
## 10 France         74.3
## # ... with 132 more rows
…
